[
  {
    "flag": "https://www.countryflags.io/ad/shiny/64.png",
    "country": "Andorra"
  },
  {
    "flag": "https://www.countryflags.io/ae/shiny/64.png",
    "country": "UAE"
  },
  {
    "flag": "https://www.countryflags.io/af/shiny/64.png",
    "country": "Afghanistan"
  },
  {
    "flag": "https://www.countryflags.io/ag/shiny/64.png",
    "country": "Antigua and Barbuda"
  },
  {
    "flag": "https://www.countryflags.io/ai/shiny/64.png",
    "country": "Anguilla"
  },
  {
    "flag": "https://www.countryflags.io/al/shiny/64.png",
    "country": "Albania"
  },
  {
    "flag": "https://www.countryflags.io/am/shiny/64.png",
    "country": "Armenia"
  },
  {
    "flag": "https://www.countryflags.io/an/shiny/64.png",
    "country": "Netherlands Antilles"
  },
  {
    "flag": "https://www.countryflags.io/ao/shiny/64.png",
    "country": "Angola"
  },
  {
    "flag": "https://www.countryflags.io/aq/shiny/64.png",
    "country": "Antarctica"
  },
  {
    "flag": "https://www.countryflags.io/ar/shiny/64.png",
    "country": "Argentina"
  },
  {
    "flag": "https://www.countryflags.io/as/shiny/64.png",
    "country": "American Samoa"
  },
  {
    "flag": "https://www.countryflags.io/at/shiny/64.png",
    "country": "Austria"
  },
  {
    "flag": "https://www.countryflags.io/au/shiny/64.png",
    "country": "Australia"
  },
  {
    "flag": "https://www.countryflags.io/aw/shiny/64.png",
    "country": "Aruba"
  },
  {
    "flag": "https://www.countryflags.io/ax/shiny/64.png",
    "country": "Åland Islands"
  },
  {
    "flag": "https://www.countryflags.io/az/shiny/64.png",
    "country": "Azerbaijan"
  },
  {
    "flag": "https://www.countryflags.io/ba/shiny/64.png",
    "country": "Bosnia and Herzegovina"
  },
  {
    "flag": "https://www.countryflags.io/bb/shiny/64.png",
    "country": "Barbados"
  },
  {
    "flag": "https://www.countryflags.io/bd/shiny/64.png",
    "country": "Bangladesh"
  },
  {
    "flag": "https://www.countryflags.io/be/shiny/64.png",
    "country": "Belgium"
  },
  {
    "flag": "https://www.countryflags.io/bf/shiny/64.png",
    "country": "Burkina Faso"
  },
  {
    "flag": "https://www.countryflags.io/bg/shiny/64.png",
    "country": "Bulgaria"
  },
  {
    "flag": "https://www.countryflags.io/bh/shiny/64.png",
    "country": "Bahrain"
  },
  {
    "flag": "https://www.countryflags.io/bi/shiny/64.png",
    "country": "Burundi"
  },
  {
    "flag": "https://www.countryflags.io/bj/shiny/64.png",
    "country": "Benin"
  },
  {
    "flag": "https://www.countryflags.io/bl/shiny/64.png",
    "country": "Saint Barthélemy"
  },
  {
    "flag": "https://www.countryflags.io/bm/shiny/64.png",
    "country": "Bermuda"
  },
  {
    "flag": "https://www.countryflags.io/bn/shiny/64.png",
    "country": "Brunei"
  },
  {
    "flag": "https://www.countryflags.io/bo/shiny/64.png",
    "country": "Bolivia"
  },
  {
    "flag": "https://www.countryflags.io/bq/shiny/64.png",
    "country": "Caribbean Netherlands"
  },
  {
    "flag": "https://www.countryflags.io/br/shiny/64.png",
    "country": "Brazil"
  },
  {
    "flag": "https://www.countryflags.io/bs/shiny/64.png",
    "country": "Bahamas"
  },
  {
    "flag": "https://www.countryflags.io/bt/shiny/64.png",
    "country": "Bhutan"
  },
  {
    "flag": "https://www.countryflags.io/bv/shiny/64.png",
    "country": "Bouvet Island"
  },
  {
    "flag": "https://www.countryflags.io/bw/shiny/64.png",
    "country": "Botswana"
  },
  {
    "flag": "https://www.countryflags.io/by/shiny/64.png",
    "country": "Belarus"
  },
  {
    "flag": "https://www.countryflags.io/bz/shiny/64.png",
    "country": "Belize"
  },
  {
    "flag": "https://www.countryflags.io/ca/shiny/64.png",
    "country": "Canada"
  },
  {
    "flag": "https://www.countryflags.io/cc/shiny/64.png",
    "country": "Cocos (Keeling) Islands"
  },
  {
    "flag": "https://www.countryflags.io/cd/shiny/64.png",
    "country": "DRC"
  },
  {
    "flag": "https://www.countryflags.io/cf/shiny/64.png",
    "country": "CAR"
  },
  {
    "flag": "https://www.countryflags.io/cg/shiny/64.png",
    "country": "Congo"
  },
  {
    "flag": "https://www.countryflags.io/ch/shiny/64.png",
    "country": "Switzerland"
  },
  {
    "flag": "https://www.countryflags.io/ci/shiny/64.png",
    "country": "Ivory Coast"
  },
  {
    "flag": "https://www.countryflags.io/ck/shiny/64.png",
    "country": "Cook Islands"
  },
  {
    "flag": "https://www.countryflags.io/cl/shiny/64.png",
    "country": "Chile"
  },
  {
    "flag": "https://www.countryflags.io/cm/shiny/64.png",
    "country": "Cameroon"
  },
  {
    "flag": "https://www.countryflags.io/cn/shiny/64.png",
    "country": "China"
  },
  {
    "flag": "https://www.countryflags.io/co/shiny/64.png",
    "country": "Colombia"
  },
  {
    "flag": "https://www.countryflags.io/cr/shiny/64.png",
    "country": "Costa Rica"
  },
  {
    "flag": "https://www.countryflags.io/cu/shiny/64.png",
    "country": "Cuba"
  },
  {
    "flag": "https://www.countryflags.io/cv/shiny/64.png",
    "country": "Cabo Verde"
  },
  {
    "flag": "https://www.countryflags.io/cw/shiny/64.png",
    "country": "Curaçao"
  },
  {
    "flag": "https://www.countryflags.io/cx/shiny/64.png",
    "country": "Christmas Island"
  },
  {
    "flag": "https://www.countryflags.io/cy/shiny/64.png",
    "country": "Cyprus"
  },
  {
    "flag": "https://www.countryflags.io/cz/shiny/64.png",
    "country": "Czechia"
  },
  {
    "flag": "https://www.countryflags.io/de/shiny/64.png",
    "country": "Germany"
  },
  {
    "flag": "https://www.countryflags.io/dj/shiny/64.png",
    "country": "Djibouti"
  },
  {
    "flag": "https://www.countryflags.io/dk/shiny/64.png",
    "country": "Denmark"
  },
  {
    "flag": "https://www.countryflags.io/dm/shiny/64.png",
    "country": "Dominica"
  },
  {
    "flag": "https://www.countryflags.io/do/shiny/64.png",
    "country": "Dominican Republic"
  },
  {
    "flag": "https://www.countryflags.io/dz/shiny/64.png",
    "country": "Algeria"
  },
  {
    "flag": "https://www.countryflags.io/ec/shiny/64.png",
    "country": "Ecuador"
  },
  {
    "flag": "https://www.countryflags.io/ee/shiny/64.png",
    "country": "Estonia"
  },
  {
    "flag": "https://www.countryflags.io/eg/shiny/64.png",
    "country": "Egypt"
  },
  {
    "flag": "https://www.countryflags.io/eh/shiny/64.png",
    "country": "Western Sahara"
  },
  {
    "flag": "https://www.countryflags.io/er/shiny/64.png",
    "country": "Eritrea"
  },
  {
    "flag": "https://www.countryflags.io/es/shiny/64.png",
    "country": "Spain"
  },
  {
    "flag": "https://www.countryflags.io/et/shiny/64.png",
    "country": "Ethiopia"
  },
  {
    "flag": "https://www.countryflags.io/eu/shiny/64.png",
    "country": "Europe"
  },
  {
    "flag": "https://www.countryflags.io/fi/shiny/64.png",
    "country": "Finland"
  },
  {
    "flag": "https://www.countryflags.io/fj/shiny/64.png",
    "country": "Fiji"
  },
  {
    "flag": "https://www.countryflags.io/fk/shiny/64.png",
    "country": "Falkland Islands"
  },
  {
    "flag": "https://www.countryflags.io/fo/shiny/64.png",
    "country": "Faeroe Islands"
  },
  {
    "flag": "https://www.countryflags.io/fr/shiny/64.png",
    "country": "France"
  },
  {
    "flag": "https://www.countryflags.io/ga/shiny/64.png",
    "country": "Gabon"
  },
  {
    "flag": "https://www.countryflags.io/gb/shiny/64.png",
    "country": "UK"
  },
  {
    "flag": "https://www.countryflags.io/gd/shiny/64.png",
    "country": "Grenada"
  },
  {
    "flag": "https://www.countryflags.io/ge/shiny/64.png",
    "country": "Georgia"
  },
  {
    "flag": "https://www.countryflags.io/gf/shiny/64.png",
    "country": "French Guiana"
  },
  {
    "flag": "https://www.countryflags.io/gg/shiny/64.png",
    "country": "Guernsey"
  },
  {
    "flag": "https://www.countryflags.io/gh/shiny/64.png",
    "country": "Ghana"
  },
  {
    "flag": "https://www.countryflags.io/gi/shiny/64.png",
    "country": "Gibraltar"
  },
  {
    "flag": "https://www.countryflags.io/gl/shiny/64.png",
    "country": "Greenland"
  },
  {
    "flag": "https://www.countryflags.io/gm/shiny/64.png",
    "country": "Gambia"
  },
  {
    "flag": "https://www.countryflags.io/gn/shiny/64.png",
    "country": "Guinea"
  },
  {
    "flag": "https://www.countryflags.io/gp/shiny/64.png",
    "country": "Guadeloupe"
  },
  {
    "flag": "https://www.countryflags.io/gq/shiny/64.png",
    "country": "Equatorial Guinea"
  },
  {
    "flag": "https://www.countryflags.io/gr/shiny/64.png",
    "country": "Greece"
  },
  {
    "flag": "https://www.countryflags.io/gt/shiny/64.png",
    "country": "Guatemala"
  },
  {
    "flag": "https://www.countryflags.io/gu/shiny/64.png",
    "country": "Guam"
  },
  {
    "flag": "https://www.countryflags.io/gw/shiny/64.png",
    "country": "Guinea-Bissau"
  },
  {
    "flag": "https://www.countryflags.io/gy/shiny/64.png",
    "country": "Guyana"
  },
  {
    "flag": "https://www.countryflags.io/hk/shiny/64.png",
    "country": "Hong Kong"
  },
  {
    "flag": "https://www.countryflags.io/hn/shiny/64.png",
    "country": "Honduras"
  },
  {
    "flag": "https://www.countryflags.io/hr/shiny/64.png",
    "country": "Croatia"
  },
  {
    "flag": "https://www.countryflags.io/ht/shiny/64.png",
    "country": "Haiti"
  },
  {
    "flag": "https://www.countryflags.io/hu/shiny/64.png",
    "country": "Hungary"
  },
  {
    "flag": "https://www.countryflags.io/id/shiny/64.png",
    "country": "Indonesia"
  },
  {
    "flag": "https://www.countryflags.io/ie/shiny/64.png",
    "country": "Ireland"
  },
  {
    "flag": "https://www.countryflags.io/il/shiny/64.png",
    "country": "Israel"
  },
  {
    "flag": "https://www.countryflags.io/im/shiny/64.png",
    "country": "Isle of Man"
  },
  {
    "flag": "https://www.countryflags.io/in/shiny/64.png",
    "country": "India"
  },
  {
    "flag": "https://www.countryflags.io/io/shiny/64.png",
    "country": "British Indian Ocean Territory"
  },
  {
    "flag": "https://www.countryflags.io/iq/shiny/64.png",
    "country": "Iraq"
  },
  {
    "flag": "https://www.countryflags.io/ir/shiny/64.png",
    "country": "Iran"
  },
  {
    "flag": "https://www.countryflags.io/is/shiny/64.png",
    "country": "Iceland"
  },
  {
    "flag": "https://www.countryflags.io/it/shiny/64.png",
    "country": "Italy"
  },
  {
    "flag": "https://www.countryflags.io/je/shiny/64.png",
    "country": "Jersey"
  },
  {
    "flag": "https://www.countryflags.io/jm/shiny/64.png",
    "country": "Jamaica"
  },
  {
    "flag": "https://www.countryflags.io/jo/shiny/64.png",
    "country": "Jordan"
  },
  {
    "flag": "https://www.countryflags.io/jp/shiny/64.png",
    "country": "Japan"
  },
  {
    "flag": "https://www.countryflags.io/ke/shiny/64.png",
    "country": "Kenya"
  },
  {
    "flag": "https://www.countryflags.io/kg/shiny/64.png",
    "country": "Kyrgyzstan"
  },
  {
    "flag": "https://www.countryflags.io/kh/shiny/64.png",
    "country": "Cambodia"
  },
  {
    "flag": "https://www.countryflags.io/ki/shiny/64.png",
    "country": "Kiribati"
  },
  {
    "flag": "https://www.countryflags.io/km/shiny/64.png",
    "country": "Comoros"
  },
  {
    "flag": "https://www.countryflags.io/kn/shiny/64.png",
    "country": "Saint Kitts and Nevis"
  },
  {
    "flag": "https://www.countryflags.io/kp/shiny/64.png",
    "country": "S. Korea"
  },
  {
    "flag": "https://www.countryflags.io/kr/shiny/64.png",
    "country": "N. Korea"
  },
  {
    "flag": "https://www.countryflags.io/kw/shiny/64.png",
    "country": "Kuwait"
  },
  {
    "flag": "https://www.countryflags.io/ky/shiny/64.png",
    "country": "Cayman Islands"
  },
  {
    "flag": "https://www.countryflags.io/kz/shiny/64.png",
    "country": "Kazakhstan"
  },
  {
    "flag": "https://www.countryflags.io/la/shiny/64.png",
    "country": "Laos"
  },
  {
    "flag": "https://www.countryflags.io/lb/shiny/64.png",
    "country": "Lebanon"
  },
  {
    "flag": "https://www.countryflags.io/lc/shiny/64.png",
    "country": "Saint Lucia"
  },
  {
    "flag": "https://www.countryflags.io/li/shiny/64.png",
    "country": "Liechtenstein"
  },
  {
    "flag": "https://www.countryflags.io/lk/shiny/64.png",
    "country": "Sri Lanka"
  },
  {
    "flag": "https://www.countryflags.io/lr/shiny/64.png",
    "country": "Liberia"
  },
  {
    "flag": "https://www.countryflags.io/ls/shiny/64.png",
    "country": "Lesotho"
  },
  {
    "flag": "https://www.countryflags.io/lt/shiny/64.png",
    "country": "Lithuania"
  },
  {
    "flag": "https://www.countryflags.io/lu/shiny/64.png",
    "country": "Luxembourg"
  },
  {
    "flag": "https://www.countryflags.io/lv/shiny/64.png",
    "country": "Latvia"
  },
  {
    "flag": "https://www.countryflags.io/ly/shiny/64.png",
    "country": "Libya"
  },
  {
    "flag": "https://www.countryflags.io/ma/shiny/64.png",
    "country": "Morocco"
  },
  {
    "flag": "https://www.countryflags.io/mc/shiny/64.png",
    "country": "Monaco"
  },
  {
    "flag": "https://www.countryflags.io/md/shiny/64.png",
    "country": "Moldova"
  },
  {
    "flag": "https://www.countryflags.io/me/shiny/64.png",
    "country": "Montenegro"
  },
  {
    "flag": "https://www.countryflags.io/mf/shiny/64.png",
    "country": "Saint Martin"
  },
  {
    "flag": "https://www.countryflags.io/mg/shiny/64.png",
    "country": "Madagascar"
  },
  {
    "flag": "https://www.countryflags.io/mh/shiny/64.png",
    "country": "Marshall Islands"
  },
  {
    "flag": "https://www.countryflags.io/mk/shiny/64.png",
    "country": "North Macedonia"
  },
  {
    "flag": "https://www.countryflags.io/ml/shiny/64.png",
    "country": "Mali"
  },
  {
    "flag": "https://www.countryflags.io/mm/shiny/64.png",
    "country": "Myanmar"
  },
  {
    "flag": "https://www.countryflags.io/mn/shiny/64.png",
    "country": "Mongolia"
  },
  {
    "flag": "https://www.countryflags.io/mo/shiny/64.png",
    "country": "Macao"
  },
  {
    "flag": "https://www.countryflags.io/mq/shiny/64.png",
    "country": "Martinique"
  },
  {
    "flag": "https://www.countryflags.io/mr/shiny/64.png",
    "country": "Mauritania"
  },
  {
    "flag": "https://www.countryflags.io/ms/shiny/64.png",
    "country": "Montserrat"
  },
  {
    "flag": "https://www.countryflags.io/mt/shiny/64.png",
    "country": "Malta"
  },
  {
    "flag": "https://www.countryflags.io/mu/shiny/64.png",
    "country": "Mauritius"
  },
  {
    "flag": "https://www.countryflags.io/mv/shiny/64.png",
    "country": "Maldives"
  },
  {
    "flag": "https://www.countryflags.io/mw/shiny/64.png",
    "country": "Malawi"
  },
  {
    "flag": "https://www.countryflags.io/mx/shiny/64.png",
    "country": "Mexico"
  },
  {
    "flag": "https://www.countryflags.io/my/shiny/64.png",
    "country": "Malaysia"
  },
  {
    "flag": "https://www.countryflags.io/mz/shiny/64.png",
    "country": "Mozambique"
  },
  {
    "flag": "https://www.countryflags.io/na/shiny/64.png",
    "country": "Namibia"
  },
  {
    "flag": "https://www.countryflags.io/nc/shiny/64.png",
    "country": "New Caledonia"
  },
  {
    "flag": "https://www.countryflags.io/ne/shiny/64.png",
    "country": "Niger"
  },
  {
    "flag": "https://www.countryflags.io/nf/shiny/64.png",
    "country": "Norfolk Island"
  },
  {
    "flag": "https://www.countryflags.io/ng/shiny/64.png",
    "country": "Nigeria"
  },
  {
    "flag": "https://www.countryflags.io/ni/shiny/64.png",
    "country": "Nicaragua"
  },
  {
    "flag": "https://www.countryflags.io/nl/shiny/64.png",
    "country": "Netherlands"
  },
  {
    "flag": "https://www.countryflags.io/no/shiny/64.png",
    "country": "Norway"
  },
  {
    "flag": "https://www.countryflags.io/np/shiny/64.png",
    "country": "Nepal"
  },
  {
    "flag": "https://www.countryflags.io/nr/shiny/64.png",
    "country": "Nauru"
  },
  {
    "flag": "https://www.countryflags.io/nu/shiny/64.png",
    "country": "Niue"
  },
  {
    "flag": "https://www.countryflags.io/nz/shiny/64.png",
    "country": "New Zealand"
  },
  {
    "flag": "https://www.countryflags.io/om/shiny/64.png",
    "country": "Oman"
  },
  {
    "flag": "https://www.countryflags.io/pa/shiny/64.png",
    "country": "Panama"
  },
  {
    "flag": "https://www.countryflags.io/pe/shiny/64.png",
    "country": "Peru"
  },
  {
    "flag": "https://www.countryflags.io/pf/shiny/64.png",
    "country": "French Polynesia"
  },
  {
    "flag": "https://www.countryflags.io/pg/shiny/64.png",
    "country": "Papua New Guinea"
  },
  {
    "flag": "https://www.countryflags.io/ph/shiny/64.png",
    "country": "Philippines"
  },
  {
    "flag": "https://www.countryflags.io/pk/shiny/64.png",
    "country": "Pakistan"
  },
  {
    "flag": "https://www.countryflags.io/pl/shiny/64.png",
    "country": "Poland"
  },
  {
    "flag": "https://www.countryflags.io/pm/shiny/64.png",
    "country": "Saint Pierre Miquelon"
  },
  {
    "flag": "https://www.countryflags.io/pn/shiny/64.png",
    "country": "Pitcairn"
  },
  {
    "flag": "https://www.countryflags.io/pr/shiny/64.png",
    "country": "Puerto Rico"
  },
  {
    "flag": "https://www.countryflags.io/ps/shiny/64.png",
    "country": "Palestine"
  },
  {
    "flag": "https://www.countryflags.io/pt/shiny/64.png",
    "country": "Portugal"
  },
  {
    "flag": "https://www.countryflags.io/pw/shiny/64.png",
    "country": "Palau"
  },
  {
    "flag": "https://www.countryflags.io/py/shiny/64.png",
    "country": "Paraguay"
  },
  {
    "flag": "https://www.countryflags.io/qa/shiny/64.png",
    "country": "Qatar"
  },
  {
    "flag": "https://www.countryflags.io/re/shiny/64.png",
    "country": "Réunion"
  },
  {
    "flag": "https://www.countryflags.io/ro/shiny/64.png",
    "country": "Romania"
  },
  {
    "flag": "https://www.countryflags.io/rs/shiny/64.png",
    "country": "Serbia"
  },
  {
    "flag": "https://www.countryflags.io/ru/shiny/64.png",
    "country": "Russia"
  },
  {
    "flag": "https://www.countryflags.io/rw/shiny/64.png",
    "country": "Rwanda"
  },
  {
    "flag": "https://www.countryflags.io/sa/shiny/64.png",
    "country": "Saudi Arabia"
  },
  {
    "flag": "https://www.countryflags.io/sb/shiny/64.png",
    "country": "Solomon Islands"
  },
  {
    "flag": "https://www.countryflags.io/sc/shiny/64.png",
    "country": "Seychelles"
  },
  {
    "flag": "https://www.countryflags.io/sd/shiny/64.png",
    "country": "Sudan"
  },
  {
    "flag": "https://www.countryflags.io/se/shiny/64.png",
    "country": "Sweden"
  },
  {
    "flag": "https://www.countryflags.io/sg/shiny/64.png",
    "country": "Singapore"
  },
  {
    "flag": "https://www.countryflags.io/si/shiny/64.png",
    "country": "Slovenia"
  },
  {
    "flag": "https://www.countryflags.io/sk/shiny/64.png",
    "country": "Slovakia"
  },
  {
    "flag": "https://www.countryflags.io/sl/shiny/64.png",
    "country": "Sierra Leone"
  },
  {
    "flag": "https://www.countryflags.io/sm/shiny/64.png",
    "country": "San Marino"
  },
  {
    "flag": "https://www.countryflags.io/sn/shiny/64.png",
    "country": "Senegal"
  },
  {
    "flag": "https://www.countryflags.io/so/shiny/64.png",
    "country": "Somalia"
  },
  {
    "flag": "https://www.countryflags.io/sr/shiny/64.png",
    "country": "Suricountry"
  },
  {
    "flag": "https://www.countryflags.io/ss/shiny/64.png",
    "country": "South Sudan"
  },
  {
    "flag": "https://www.countryflags.io/st/shiny/64.png",
    "country": "Sao Tome and Principe"
  },
  {
    "flag": "https://www.countryflags.io/sv/shiny/64.png",
    "country": "El Salvador"
  },
  {
    "flag": "https://www.countryflags.io/sx/shiny/64.png",
    "country": "Sint Maarten"
  },
  {
    "flag": "https://www.countryflags.io/sz/shiny/64.png",
    "country": "Swaziland"
  },
  {
    "flag": "https://www.countryflags.io/tc/shiny/64.png",
    "country": "Turks and Caicos"
  },
  {
    "flag": "https://www.countryflags.io/td/shiny/64.png",
    "country": "Chad"
  },
  {
    "flag": "https://www.countryflags.io/tf/shiny/64.png",
    "country": "French Southern Territories"
  },
  {
    "flag": "https://www.countryflags.io/tg/shiny/64.png",
    "country": "Togo"
  },
  {
    "flag": "https://www.countryflags.io/th/shiny/64.png",
    "country": "Thailand"
  },
  {
    "flag": "https://www.countryflags.io/tj/shiny/64.png",
    "country": "Tajikistan"
  },
  {
    "flag": "https://www.countryflags.io/tk/shiny/64.png",
    "country": "Tokelau"
  },
  {
    "flag": "https://www.countryflags.io/tl/shiny/64.png",
    "country": "Timor-Leste"
  },
  {
    "flag": "https://www.countryflags.io/tm/shiny/64.png",
    "country": "Turkmenistan"
  },
  {
    "flag": "https://www.countryflags.io/tn/shiny/64.png",
    "country": "Tunisia"
  },
  {
    "flag": "https://www.countryflags.io/to/shiny/64.png",
    "country": "Tonga"
  },
  {
    "flag": "https://www.countryflags.io/tr/shiny/64.png",
    "country": "Turkey"
  },
  {
    "flag": "https://www.countryflags.io/tt/shiny/64.png",
    "country": "Trinidad and Tobago"
  },
  {
    "flag": "https://www.countryflags.io/tv/shiny/64.png",
    "country": "Tuvalu"
  },
  {
    "flag": "https://www.countryflags.io/tw/shiny/64.png",
    "country": "Taiwan"
  },
  {
    "flag": "https://www.countryflags.io/tz/shiny/64.png",
    "country": "Tanzania"
  },
  {
    "flag": "https://www.countryflags.io/ua/shiny/64.png",
    "country": "Ukraine"
  },
  {
    "flag": "https://www.countryflags.io/vc/shiny/64.png",
    "country": "St. Vincent Grenadines"
  },
  {
    "flag": "https://www.countryflags.io/ug/shiny/64.png",
    "country": "Uganda"
  },
  {
    "flag": "https://www.countryflags.io/us/shiny/64.png",
    "country": "USA"
  },
  {
    "flag": "https://www.countryflags.io/uy/shiny/64.png",
    "country": "Uruguay"
  },
  {
    "flag": "https://www.countryflags.io/uz/shiny/64.png",
    "country": "Uzbekistan"
  },
  {
    "flag": "https://www.countryflags.io/ve/shiny/64.png",
    "country": "Venezuela"
  },
  {
    "flag": "https://www.countryflags.io/vg/shiny/64.png",
    "country": "British Virgin Islands"
  },
  {
    "flag": "https://www.countryflags.io/vn/shiny/64.png",
    "country": "Vietnam"
  },
  {
    "flag": "https://www.countryflags.io/vu/shiny/64.png",
    "country": "Vanuatu"
  },
  {
    "flag": "https://www.countryflags.io/xk/shiny/64.png",
    "country": "Kosovo"
  },
  {
    "flag": "https://www.countryflags.io/ws/shiny/64.png",
    "country": "Samoa"
  },
  {
    "flag": "https://www.countryflags.io/ye/shiny/64.png",
    "country": "Yemen"
  },
  {
    "flag": "https://www.countryflags.io/yt/shiny/64.png",
    "country": "Mayotte"
  },
  {
    "flag": "https://www.countryflags.io/za/shiny/64.png",
    "country": "South Africa"
  },
  {
    "flag": "https://www.countryflags.io/zm/shiny/64.png",
    "country": "Zambia"
  },
  {
    "flag": "https://www.countryflags.io/zw/shiny/64.png",
    "country": "Zimbabwe"
  },
  {
    "flag": "https://www.countryflags.io/sy/shiny/64.png",
    "country": "Syria"
  },
  {
    "flag": "https://www.countryflags.io/sr/shiny/64.png",
    "country": "Suriname"
  },
  {
    "flag": "https://www.countryflags.io/va/shiny/64.png",
    "country": "Vatican City"
  },
  {
    "flag": "https://www.countryflags.io/bl/shiny/64.png",
    "country": "St. Barth"
  }
]